Carbon.utf8.md
…
Plot_1ha <- Trees_1ha %>%
  group_by(Plot_names,DIST,Year, EAST, NORTH) %>%
  dplyr::summarise(C_ha = sum(Carbon_Mg))

Plot_50M <- Trees_50m %>%
  group_by(Plot_names,DIST,Year, EAST, NORTH) %>%
  dplyr::summarise(C_Tree_total = sum(Carbon_Mg)) %>%
  mutate(C_ha=C_Tree_total/0.25) %>% dplyr::select(-C_Tree_total)

Combining two dataframes of different plot size according to Plot names.In this process, NA values- generated were replaced with zero in order to add carbon per ha of different plot size together. Carbon per hectare columns of the two dataframes were added together to obtain total carbon of each plot in hectare scale.

All_Plots <- bind_rows(Plot_1ha,Plot_50M) %>% group_by(Plot_names,Year,DIST,EAST, NORTH) %>% summarise(Sum_CHa=sum(C_ha))
droplevels(All_Plots)

## # A tibble: 8,172 x 6
## # Groups:   Plot_names, Year, DIST, EAST [8,172]
##    Plot_names        Year DIST    EAST   NORTH Sum_CHa
##    <chr>            <int> <chr>  <int>   <int>   <dbl>
##  1 185000 _ 2029000  2012 Bago  185000 2029000    3.82
##  2 185000 _ 2031000  2012 Bago  185000 2031000   10.2 
##  3 185000 _ 2033000  2012 Bago  185000 2033000   10.9 
##  4 185000 _ 2035000  2012 Bago  185000 2035000    9.33
##  5 185000 _ 2037000  2012 Bago  185000 2037000   12.4 
##  6 185000 _ 2039000  2012 Bago  185000 2039000   11.1 
##  7 185000 _ 2041000  2012 Bago  185000 2041000   16.6 
##  8 187000 _ 2027000  2012 Bago  187000 2027000    3.43
##  9 187000 _ 2029000  2012 Bago  187000 2029000    8.92
## 10 187000 _ 2031000  2012 Bago  187000 2031000   13.9 
## # ... with 8,162 more rows
…
