Carbon.utf8.md
…
Plot_1ha <- Trees_1ha %>%
  group_by(Plot_names,District,Year, EAST, NORTH) %>%
  dplyr::summarise(C_ha = sum(Carbon_Mg))

Plot_50M <- Trees_50m %>%
  group_by(Plot_names,District,Year, EAST, NORTH) %>%
  dplyr::summarise(C_Tree_total = sum(Carbon_Mg)) %>%
  mutate(C_ha=C_Tree_total/0.25) %>% dplyr::select(-C_Tree_total)

Combining two dataframes of different plot size according to Plot names.In this process, NA values- generated were replaced with zero in order to add carbon per ha of different plot size together. Carbon per hectare columns of the two dataframes were added together to obtain total carbon of each plot in hectare scale.

All_Plots <- bind_rows(Plot_1ha,Plot_50M) %>% group_by(Plot_names,District,Year, EAST, NORTH) %>% summarise(Sum_CHa=sum(C_ha))
droplevels(All_Plots)

## # A tibble: 8,168 x 6
## # Groups:   Plot_names, District, Year, EAST [8,168]
##    Plot_names      District     Year    EAST  NORTH Sum_CHa
##    <fct>           <fct>       <int>   <int>  <dbl>   <dbl>
##  1 N181974E1971996 Thayarwaddy  2011 1971996 181974   3.89 
##  2 N182002E1970008 Thayarwaddy  2011 1970008 182002   4.68 
##  3 N182004E1962006 Thayarwaddy  2011 1962006 182004   3.93 
##  4 N182009E1964004 Thayarwaddy  2011 1964004 182009   0.639
##  5 N182232E1974110 Thayarwaddy  2011 1974110 182232   1.80 
##  6 N182246E1977268 Thayarwaddy  2011 1977268 182246  14.8  
##  7 N183934E1999962 Thayarwaddy  2011 1999962 183934   7.75 
##  8 N183938E2028020 Thayarwaddy  2011 2028020 183938   8.02 
##  9 N183948E2022059 Thayarwaddy  2011 2022059 183948  16.2  
## 10 N183955E1988182 Thayarwaddy  2011 1988182 183955   3.92 
## # ... with 8,158 more rows
…
